{
  "description": "#SD-LRMV-37V",
  "persons": [
    {
      "id": "LRMV-37V",
      "sortKey": "0000000000",
      "living": true,
      "gender": {
        "id": "af7e611a-21f8-4876-8e44-d63f653baac9",
        "attribution": {
          "contributor": {
            "resource": "https://integration.familysearch.org/platform/users/agents/MM94-938",
            "resourceId": "MM94-938"
          },
          "modified": 1567902350886
        },
        "type": "http://gedcomx.org/Male",
        "links": { "conclusion": { "href": "https://integration.familysearch.org/platform/tree/persons/LRMV-37V/conclusions/af7e611a-21f8-4876-8e44-d63f653baac9?flag=fsh" } }
      },
      "links": {
        "spouses": { "href": "https://integration.familysearch.org/platform/tree/persons/LRMV-37V/spouses?flag=fsh" },
        "change-history": { "href": "https://integration.familysearch.org/platform/tree/persons/LRMV-37V/changes?flag=fsh" },
        "ancestry": { "href": "https://integration.familysearch.org/platform/tree/ancestry?flag=fsh&person=LRMV-37V" },
        "notes": { "href": "https://integration.familysearch.org/platform/tree/persons/LRMV-37Votes?flag=fsh" },
        "non-matches": { "href": "https://integration.familysearch.org/platform/tree/persons/LRMV-37Vot-a-match?flag=fsh" },
        "portraits": { "href": "https://integration.familysearch.org/platform/tree/persons/LRMV-37V/portraits?flag=fsh" },
        "ordinances": { "href": "https://integration.familysearch.org/platform/tree/persons/LRMV-37V/ordinances?flag=fsh" },
        "collection": { "href": "https://integration.familysearch.org/platform/collections/tree?flag=fsh" },
        "families": { "href": "https://integration.familysearch.org/platform/tree/persons/LRMV-37V/families?flag=fsh" },
        "portrait": { "href": "https://integration.familysearch.org/platform/tree/persons/LRMV-37V/portrait?flag=fsh" },
        "matches": { "href": "https://integration.familysearch.org/platform/tree/persons/LRMV-37V/matches?flag=fsh" },
        "children": { "href": "https://integration.familysearch.org/platform/tree/persons/LRMV-37V/children?flag=fsh" },
        "descendancy": { "href": "https://integration.familysearch.org/platform/tree/descendancy?flag=fsh&person=LRMV-37V" },
        "person": { "href": "https://integration.familysearch.org/platform/tree/persons/LRMV-37V?flag=fsh" },
        "source-descriptions": { "href": "https://integration.familysearch.org/platform/tree/persons/LRMV-37V/sources?flag=fsh" },
        "merge": {
          "template": "https://integration.familysearch.org/platform/tree/persons/{pid}/merges/{dpid}?flag=fst{&access_token,filter}",
          "type": "application/json,application/x-fs-v1+json,application/x-fs-v1+xml,application/xml,text/html",
          "accept": "application/x-fs-v1+json,application/x-fs-v1+xml",
          "allow": "OPTIONS,GET,POST",
          "title": "Person Merge"
        },
        "ordinance-reservations": { "href": "https://integration.familysearch.org/platform/tree/persons/LRMV-37V/reservations?flag=fsh" },
        "artifacts": { "href": "https://integration.familysearch.org/platform/tree/persons/LRMV-37V/memories?flag=fsh" },
        "parents": { "href": "https://integration.familysearch.org/platform/tree/persons/LRMV-37V/parents?flag=fsh" }
      },
      "identifiers": { "http://gedcomx.org/Persistent": [ "https://integration.familysearch.org/ark:/61903/4:1:LRMV-37V" ] },
      "names": [
        {
          "id": "e117fc87-66aa-49b9-91b9-efbdc8cc649a",
          "attribution": {
            "contributor": {
              "resource": "https://integration.familysearch.org/platform/users/agents/MM94-938",
              "resourceId": "MM94-938"
            },
            "modified": 1567902350886
          },
          "type": "http://gedcomx.org/BirthName",
          "preferred": true,
          "links": { "conclusion": { "href": "https://integration.familysearch.org/platform/tree/persons/LRMV-37V/conclusions/e117fc87-66aa-49b9-91b9-efbdc8cc649a?flag=fsh" } },
          "nameForms": [
            {
              "lang": "en",
              "fullText": "Marcelo Archiza Almeida",
              "parts": [
                {
                  "type": "http://gedcomx.org/Given",
                  "value": "Marcelo"
                },
                {
                  "type": "http://gedcomx.org/Surname",
                  "value": "Archiza Almeida"
                }
              ],
              "nameFormInfo": [ { "order": "http://familysearch.org/v1/Eurotypic" } ]
            }
          ]
        }
      ],
      "facts": [
        {
          "id": "42a15d6c-7f14-44c5-a4dc-4b5842500900",
          "attribution": {
            "contributor": {
              "resource": "https://integration.familysearch.org/platform/users/agents/MM94-938",
              "resourceId": "MM94-938"
            },
            "modified": 1567907077312
          },
          "type": "http://gedcomx.org/Birth",
          "date": {
            "original": "24 Dec 1993",
            "formal": "+1993-12-24",
            "normalized": [
              {
                "lang": "en-US",
                "value": "24 December 1993"
              },
              { "value": "24 December 1993" }
            ]
          },
          "links": { "conclusion": { "href": "https://integration.familysearch.org/platform/tree/persons/LRMV-37V/conclusions/42a15d6c-7f14-44c5-a4dc-4b5842500900?flag=fsh" } }
        }
      ],
      "display": {
        "name": "Marcelo Archiza Almeida",
        "gender": "Male",
        "lifespan": "1993-Living",
        "birthDate": "24 December 1993",
        "ascendancyNumber": "1",
        "descendancyNumber": "1",
        "familiesAsParent": [
          {
            "parent1": {
              "resource": "#LRMV-37V",
              "resourceId": "LRMV-37V"
            },
            "parent2": {
              "resource": "https://integration.familysearch.org/ark:/61903/4:1:LRMV-372",
              "resourceId": "LRMV-372"
            },
            "children": [
              {
                "resource": "https://integration.familysearch.org/ark:/61903/4:1:LRMV-37G",
                "resourceId": "LRMV-37G"
              }
            ]
          }
        ],
        "familiesAsChild": [
          {
            "parent1": {
              "resource": "https://integration.familysearch.org/ark:/61903/4:1:LRMV-3NT",
              "resourceId": "LRMV-3NT"
            },
            "parent2": {
              "resource": "https://integration.familysearch.org/ark:/61903/4:1:LRMV-3NR",
              "resourceId": "LRMV-3NR"
            },
            "children": [
              {
                "resource": "#LRMV-37V",
                "resourceId": "LRMV-37V"
              }
            ]
          }
        ]
      },
      "personInfo": [
        {
          "readOnly": false,
          "privateSpaceRestricted": false
        }
      ]
    }
  ],
  "relationships": [
    {
      "id": "MJRZ-3B3",
      "sortKey": "0000000001",
      "type": "http://gedcomx.org/Couple",
      "person1": {
        "resource": "#LRMV-37V",
        "resourceId": "LRMV-37V"
      },
      "person2": {
        "resource": "https://integration.familysearch.org/platform/tree/persons/LRMV-372",
        "resourceId": "LRMV-372"
      },
      "links": {
        "person2": { "href": "https://integration.familysearch.org/platform/tree/persons/LRMV-372?flag=fsh" },
        "person1": { "href": "https://integration.familysearch.org/platform/tree/persons/LRMV-37V?flag=fsh" },
        "relationship": { "href": "https://integration.familysearch.org/platform/tree/couple-relationships/MJRZ-3B3?flag=fsh" }
      }
    },
    {
      "id": "P1MYG6-KYP",
      "type": "http://gedcomx.org/ParentChild",
      "person1": {
        "resource": "https://integration.familysearch.org/platform/tree/persons/LRMV-3NT",
        "resourceId": "LRMV-3NT"
      },
      "person2": {
        "resource": "#LRMV-37V",
        "resourceId": "LRMV-37V"
      },
      "links": {
        "person2": { "href": "https://integration.familysearch.org/platform/tree/persons/LRMV-37V?flag=fsh" },
        "person1": { "href": "https://integration.familysearch.org/platform/tree/persons/LRMV-3NT?flag=fsh" }
      },
      "identifiers": { "http://familysearch.org/v1/ChildAndParentsRelationship": "https://integration.familysearch.org/platform/tree/child-and-parents-relationships/MYG6-KYP" }
    },
    {
      "id": "P2MYG6-KYP",
      "type": "http://gedcomx.org/ParentChild",
      "person1": {
        "resource": "https://integration.familysearch.org/platform/tree/persons/LRMV-3NR",
        "resourceId": "LRMV-3NR"
      },
      "person2": {
        "resource": "#LRMV-37V",
        "resourceId": "LRMV-37V"
      },
      "links": {
        "person2": { "href": "https://integration.familysearch.org/platform/tree/persons/LRMV-37V?flag=fsh" },
        "person1": { "href": "https://integration.familysearch.org/platform/tree/persons/LRMV-3NR?flag=fsh" }
      },
      "identifiers": { "http://familysearch.org/v1/ChildAndParentsRelationship": "https://integration.familysearch.org/platform/tree/child-and-parents-relationships/MYG6-KYP" }
    },
    {
      "id": "P1MYG6-2Y5",
      "type": "http://gedcomx.org/ParentChild",
      "person1": {
        "resource": "#LRMV-37V",
        "resourceId": "LRMV-37V"
      },
      "person2": {
        "resource": "https://integration.familysearch.org/platform/tree/persons/LRMV-37G",
        "resourceId": "LRMV-37G"
      },
      "links": {
        "person2": { "href": "https://integration.familysearch.org/platform/tree/persons/LRMV-37G?flag=fsh" },
        "person1": { "href": "https://integration.familysearch.org/platform/tree/persons/LRMV-37V?flag=fsh" }
      },
      "identifiers": { "http://familysearch.org/v1/ChildAndParentsRelationship": "https://integration.familysearch.org/platform/tree/child-and-parents-relationships/MYG6-2Y5" }
    },
    {
      "id": "P2MYG6-2Y5",
      "type": "http://gedcomx.org/ParentChild",
      "person1": {
        "resource": "https://integration.familysearch.org/platform/tree/persons/LRMV-372",
        "resourceId": "LRMV-372"
      },
      "person2": {
        "resource": "https://integration.familysearch.org/platform/tree/persons/LRMV-37G",
        "resourceId": "LRMV-37G"
      },
      "links": {
        "person2": { "href": "https://integration.familysearch.org/platform/tree/persons/LRMV-37G?flag=fsh" },
        "person1": { "href": "https://integration.familysearch.org/platform/tree/persons/LRMV-372?flag=fsh" }
      },
      "identifiers": { "http://familysearch.org/v1/ChildAndParentsRelationship": "https://integration.familysearch.org/platform/tree/child-and-parents-relationships/MYG6-2Y5" }
    }
  ],
  "sourceDescriptions": [
    {
      "id": "SD-LRMV-37V",
      "about": "#LRMV-37V",
      "componentOf": { "description": "https://integration.familysearch.org/platform/collections/tree" },
      "resourceType": "http://gedcomx.org/Person",
      "modified": 1567909043000,
      "version": "1567909043526",
      "links": { "description": { "href": "https://integration.familysearch.org/platform/sources/descriptions/SD-LRMV-37V?flag=fsh" } },
      "citations": [
        {
          "lang": "en",
          "value": ""Family
          Tree,
          " database, <i>FamilySearch</i> (http://familysearch.org : modified 08 September 2019, 02:17), entry for Marcelo Archiza Almeida(PID https://integration.familysearch.org/ark:/61903/4:1:LRMV-37V); contributed by various users."
        }
      ],
      "titles": [ { "value": "Marcelo Archiza Almeida" } ],
      "identifiers": { "http://gedcomx.org/Persistent": [ "https://integration.familysearch.org/ark:/61903/4:1:LRMV-37V" ] }
    }
  ],
  "childAndParentsRelationships": [
    {
      "id": "MYG6-KYP",
      "parent1": {
        "resource": "https://integration.familysearch.org/platform/tree/persons/LRMV-3NT",
        "resourceId": "LRMV-3NT"
      },
      "parent2": {
        "resource": "https://integration.familysearch.org/platform/tree/persons/LRMV-3NR",
        "resourceId": "LRMV-3NR"
      },
      "child": {
        "resource": "#LRMV-37V",
        "resourceId": "LRMV-37V"
      },
      "links": {
        "parent1": { "href": "https://integration.familysearch.org/platform/tree/persons/LRMV-3NT?flag=fsh" },
        "relationship": { "href": "https://integration.familysearch.org/platform/tree/child-and-parents-relationships/MYG6-KYP?flag=fsh" },
        "parent2": { "href": "https://integration.familysearch.org/platform/tree/persons/LRMV-3NR?flag=fsh" },
        "child": { "href": "https://integration.familysearch.org/platform/tree/persons/LRMV-37V?flag=fsh" }
      },
      "identifiers": { "http://gedcomx.org/Primary": [ "https://integration.familysearch.org/platform/tree/child-and-parents-relationships/MYG6-KYP" ] }
    },
    {
      "id": "MYG6-2Y5",
      "parent1": {
        "resource": "#LRMV-37V",
        "resourceId": "LRMV-37V"
      },
      "parent2": {
        "resource": "https://integration.familysearch.org/platform/tree/persons/LRMV-372",
        "resourceId": "LRMV-372"
      },
      "child": {
        "resource": "https://integration.familysearch.org/platform/tree/persons/LRMV-37G",
        "resourceId": "LRMV-37G"
      },
      "links": {
        "parent1": { "href": "https://integration.familysearch.org/platform/tree/persons/LRMV-37V?flag=fsh" },
        "relationship": { "href": "https://integration.familysearch.org/platform/tree/child-and-parents-relationships/MYG6-2Y5?flag=fsh" },
        "parent2": { "href": "https://integration.familysearch.org/platform/tree/persons/LRMV-372?flag=fsh" },
        "child": { "href": "https://integration.familysearch.org/platform/tree/persons/LRMV-37G?flag=fsh" }
      },
      "identifiers": { "http://gedcomx.org/Primary": [ "https://integration.familysearch.org/platform/tree/child-and-parents-relationships/MYG6-2Y5" ] }
    }
  ]
}